{
  "count": 73,
  "next": "http://192.168.2.236:8000/api_v1/features/?limit=10&offset=10",
  "previous": null,
  "results": [
    {
      "id": 1,
      "district": null,
      "order": "1",
      "event": "Работы остановлены",
      "piquetu": "632-634",
      "plot": "1",
      "rights_14": "Собственность РФ (аренда)",
      "rights_17": "Собственность РФ (аренда ГК Автодор)",
      "cadastral_num_origin_14": "36:02:5600014:6 (36:02:0000000:261)",
      "cadastral_num_origin_17": "36:02:5600014:6 (36:02:0000000:261)",
      "origin_area_17": "2 996 329,00",
      "vac_area_14": "76 337,00",
      "vac_area_17": "98 433,00",
      "category_origin": "Земли промышленности",
      "obj_type_origin": "Для дороги и дорожных сооружений",
      "cadastral_num_formed": "36:02:5600014:6 (36:02:0000000:261)",
      "provision_doc": "не требуется",
      "requisites_dir_vac": "не требуется",
      "requisites_assess": "не требуется",
      "obj_costat": "не требуется",
      "offer_to_holdering": "не требуется",
      "requisites_agree_vac": "не требуется",
      "pre_doc_transfer_type": "не требуется",
      "prov_doc_FDA": null,
      "requisites_lease": "не требуется",
      "requisites_lease_agree": "-",
      "contacts_holder": "30-ГК от 24.08.2010",
      "comments": "-",
      "form_area": "-",
      "status_area": "Площадь скорректирована",
      "rights_august_14": "+",
      "pre_lang_plan": "Аренда ГК Автодор"
    },
    {
      "id": 2,
      "district": null,
      "order": "2",
      "event": "Работы остановлены",
      "piquetu": "632-635",
      "plot": "2",
      "rights_14": "Собственность РФ (аренда)",
      "rights_17": "Собственность РФ (аренда ГК Автодор)",
      "cadastral_num_origin_14": "36:02:5600016:12 (36:02:0000000:261)",
      "cadastral_num_origin_17": "36:02:5600016:12 (36:02:0000000:261)",
      "origin_area_17": "2 996 329,00",
      "vac_area_14": "72 320,00",
      "vac_area_17": "129 234,00",
      "category_origin": "Земли промышленности",
      "obj_type_origin": "Для дороги и дорожных сооружений",
      "cadastral_num_formed": "36:02:5600016:12 (36:02:0000000:261)",
      "provision_doc": "не требуется",
      "requisites_dir_vac": "не требуется",
      "requisites_assess": "не требуется",
      "obj_costat": "не требуется",
      "offer_to_holdering": "не требуется",
      "requisites_agree_vac": "не требуется",
      "pre_doc_transfer_type": "не требуется",
      "prov_doc_FDA": null,
      "requisites_lease": "не требуется",
      "requisites_lease_agree": "-",
      "contacts_holder": "30-ГК от 24.08.2010",
      "comments": "-",
      "form_area": "-",
      "status_area": "Площадь скорректирована",
      "rights_august_14": "+",
      "pre_lang_plan": "Аренда ГК Автодор"
    },
    {
      "id": 3,
      "district": null,
      "order": "3",
      "event": "Работы проводятся",
      "piquetu": "633",
      "plot": "3",
      "rights_14": "Неразграниченная госсобственность",
      "rights_17": "Данные отсутствуют",
      "cadastral_num_origin_14": "36:02:5600016",
      "cadastral_num_origin_17": "36:02:5600016:71",
      "origin_area_17": "-",
      "vac_area_14": "374,00",
      "vac_area_17": "374,00",
      "category_origin": "Земли промышленности",
      "obj_type_origin": "Автомобильный транспорт",
      "cadastral_num_formed": "36:02:5600016:71",
      "provision_doc": "не требуется",
      "requisites_dir_vac": "не требуется",
      "requisites_assess": "не требуется",
      "obj_costat": "не требуется",
      "offer_to_holdering": "не требуется",
      "requisites_agree_vac": "не требуется",
      "pre_doc_transfer_type": "не требуется",
      "prov_doc_FDA": null,
      "requisites_lease": "13.06.2017 / гк-11620 от 21.06.2017/ 7261-02 от 26.06.2017",
      "requisites_lease_agree": "№ 1843-р от 28.07.2017",
      "contacts_holder": "№ 258-ГК от 23.10.2017",
      "comments": "-",
      "form_area": "-",
      "status_area": "-",
      "rights_august_14": "+",
      "pre_lang_plan": "Аренда"
    },
    {
      "id": 4,
      "district": null,
      "order": "4",
      "event": "Работы остановлены",
      "piquetu": "633",
      "plot": "4",
      "rights_14": "Собственность РФ (аренда)",
      "rights_17": "Собственность РФ (аренда ГК Автодор)",
      "cadastral_num_origin_14": "36:02:5600016:13 (36:02:0000000:261)",
      "cadastral_num_origin_17": "36:02:5600016:13 (36:02:0000000:261)",
      "origin_area_17": "2 996 329,00",
      "vac_area_14": "222,00",
      "vac_area_17": "5 499,00",
      "category_origin": "Земли промышленности",
      "obj_type_origin": "Для дороги и дорожных сооружений",
      "cadastral_num_formed": "36:02:5600016:13 (36:02:0000000:261)",
      "provision_doc": "не требуется",
      "requisites_dir_vac": "не требуется",
      "requisites_assess": "не требуется",
      "obj_costat": "не требуется",
      "offer_to_holdering": "не требуется",
      "requisites_agree_vac": "не требуется",
      "pre_doc_transfer_type": "не требуется",
      "prov_doc_FDA": null,
      "requisites_lease": "не требуется",
      "requisites_lease_agree": "-",
      "contacts_holder": "30-ГК от 24.08.2010",
      "comments": "-",
      "form_area": "-",
      "status_area": "-",
      "rights_august_14": "+",
      "pre_lang_plan": "Аренда ГК Автодор"
    },
    {
      "id": 5,
      "district": null,
      "order": "5",
      "event": "Работы проводятся",
      "piquetu": "633",
      "plot": "5",
      "rights_14": "Общая долевая собственность (аренда)",
      "rights_17": "Общая долевая собственность (обремнение-аренда)",
      "cadastral_num_origin_14": "36:02:5600016:35",
      "cadastral_num_origin_17": "36:02:5600016:35",
      "origin_area_17": "620 000,00",
      "vac_area_14": "919,00",
      "vac_area_17": "919,00",
      "category_origin": "Земли с/х назначения",
      "obj_type_origin": "Для с/х использования",
      "cadastral_num_formed": "36:02:5600016:75",
      "provision_doc": "до 01.08.2017 /10909-02 от 30.08.2017",
      "requisites_dir_vac": "№ 2820-р от 10.10.2017 ",
      "requisites_assess": "42-О-17 от 08.12.2017",
      "obj_costat": "15 860,00 ?",
      "offer_to_holdering": "-",
      "requisites_agree_vac": "-",
      "pre_doc_transfer_type": "-",
      "prov_doc_FDA": null,
      "requisites_lease": "-",
      "requisites_lease_agree": "-",
      "contacts_holder": "-",
      "comments": "12 участников                      ООО Стивенсон-Спутник, ипотека АО Сбербанк России",
      "form_area": "-",
      "status_area": "-",
      "rights_august_14": "+",
      "pre_lang_plan": "Изътие"
    },
    {
      "id": 6,
      "district": null,
      "order": "6",
      "event": "Работы проводятся",
      "piquetu": "633",
      "plot": "6",
      "rights_14": "Общая долевая собственность",
      "rights_17": "Данные отсутствуют",
      "cadastral_num_origin_14": "36:02:5600014",
      "cadastral_num_origin_17": "36:02:5600014:69",
      "origin_area_17": "20 550 000,00",
      "vac_area_14": "1 899,00",
      "vac_area_17": "1 899,00",
      "category_origin": "-",
      "obj_type_origin": "-",
      "cadastral_num_formed": "36:02:5600014:69",
      "provision_doc": "не требуется",
      "requisites_dir_vac": "не требуется",
      "requisites_assess": "не требуется",
      "obj_costat": "не требуется",
      "offer_to_holdering": "не требуется",
      "requisites_agree_vac": "не требуется",
      "pre_doc_transfer_type": "не требуется",
      "prov_doc_FDA": null,
      "requisites_lease": "Передан в ГК ВРН филиал на аренду 24.01.18",
      "requisites_lease_agree": "-",
      "contacts_holder": "-",
      "comments": "-",
      "form_area": "-",
      "status_area": "Передан на аренду 24.01.18",
      "rights_august_14": "+",
      "pre_lang_plan": "Аренда"
    },
    {
      "id": 7,
      "district": null,
      "order": null,
      "event": null,
      "piquetu": "633",
      "plot": "7",
      "rights_14": "собственность (обременение -аренда)",
      "rights_17": "-",
      "cadastral_num_origin_14": "36:02:5600014:2",
      "cadastral_num_origin_17": "36:02:5600014:2",
      "origin_area_17": "5 307,00",
      "vac_area_14": "4 837,00",
      "vac_area_17": "-",
      "category_origin": "Земли промышленности",
      "obj_type_origin": "Под строительство и обслуживание автозаправочной станции",
      "cadastral_num_formed": "-",
      "provision_doc": "-",
      "requisites_dir_vac": "-",
      "requisites_assess": "-",
      "obj_costat": "-",
      "offer_to_holdering": "-",
      "requisites_agree_vac": "-",
      "pre_doc_transfer_type": "-",
      "prov_doc_FDA": null,
      "requisites_lease": "-",
      "requisites_lease_agree": "-",
      "contacts_holder": "-",
      "comments": "аренда ООО Лукойл-Черноземьенефтепродукт",
      "form_area": "-",
      "status_area": "-",
      "rights_august_14": "-",
      "pre_lang_plan": null
    },
    {
      "id": 8,
      "district": null,
      "order": "7",
      "event": "Работы проводятся",
      "piquetu": "633",
      "plot": "8",
      "rights_14": "Неразграниченная госсобственность",
      "rights_17": "Данные отсутствуют",
      "cadastral_num_origin_14": "36:02:5600016",
      "cadastral_num_origin_17": "36:02:5600016:73",
      "origin_area_17": "7 797 574,00",
      "vac_area_14": "363,00",
      "vac_area_17": "363,00",
      "category_origin": "-",
      "obj_type_origin": "-",
      "cadastral_num_formed": "36:02:5600016:73",
      "provision_doc": "не требуется",
      "requisites_dir_vac": "не требуется",
      "requisites_assess": "не требуется",
      "obj_costat": "не требуется",
      "offer_to_holdering": "не требуется",
      "requisites_agree_vac": "не требуется",
      "pre_doc_transfer_type": "не требуется",
      "prov_doc_FDA": null,
      "requisites_lease": "Передан в ГК ВРН филиал на аренду 24.01.18",
      "requisites_lease_agree": "-",
      "contacts_holder": "-",
      "comments": "-",
      "form_area": "-",
      "status_area": "Передан на аренду 24.01.18",
      "rights_august_14": "+",
      "pre_lang_plan": "Аренда"
    },
    {
      "id": 9,
      "district": null,
      "order": "8",
      "event": "Работы проводятся",
      "piquetu": "633",
      "plot": "9",
      "rights_14": "Неразграниченная госсобственность",
      "rights_17": "Данные отсутствуют",
      "cadastral_num_origin_14": "36:02:5600016",
      "cadastral_num_origin_17": "36:02:5600016:74",
      "origin_area_17": "7 797 574,00",
      "vac_area_14": "1 057,00",
      "vac_area_17": "1 056,00",
      "category_origin": "-",
      "obj_type_origin": "-",
      "cadastral_num_formed": "36:02:5600016:74",
      "provision_doc": "не требуется",
      "requisites_dir_vac": "не требуется",
      "requisites_assess": "не требуется",
      "obj_costat": "не требуется",
      "offer_to_holdering": "не требуется",
      "requisites_agree_vac": "не требуется",
      "pre_doc_transfer_type": "не требуется",
      "prov_doc_FDA": null,
      "requisites_lease": "Передан в ГК ВРН филиал на аренду 24.01.18",
      "requisites_lease_agree": "-",
      "contacts_holder": "-",
      "comments": "-",
      "form_area": "-",
      "status_area": "Передан на аренду 24.01.18",
      "rights_august_14": "+",
      "pre_lang_plan": "Аренда"
    },
    {
      "id": 10,
      "district": null,
      "order": "9",
      "event": "Работы проводятся",
      "piquetu": "633",
      "plot": "10",
      "rights_14": "Общая долевая собственность (аренда)",
      "rights_17": "Общая долевая собственность (обремнение-аренда)",
      "cadastral_num_origin_14": "36:02:5600016:35",
      "cadastral_num_origin_17": "36:02:5600016:35",
      "origin_area_17": "620 000,00",
      "vac_area_14": "136,00",
      "vac_area_17": "136,00",
      "category_origin": "Земли с/х назначения",
      "obj_type_origin": "Для ведения с/х производства",
      "cadastral_num_formed": "36:02:5600016:75",
      "provision_doc": "01.08.2017               /10909-02 от 30.08.2017",
      "requisites_dir_vac": "№ 2820-р от 10.10.2017 ",
      "requisites_assess": "42-О-17 от 08.12.2017",
      "obj_costat": "-",
      "offer_to_holdering": "-",
      "requisites_agree_vac": "-",
      "pre_doc_transfer_type": "-",
      "prov_doc_FDA": null,
      "requisites_lease": "-",
      "requisites_lease_agree": "-",
      "contacts_holder": "-",
      "comments": "12 участников                      ООО Стивенсон-Спутник, ипотека АО Сбербанк России",
      "form_area": "-",
      "status_area": "-",
      "rights_august_14": "+",
      "pre_lang_plan": "Изътие"
    }
  ]
}
